{
	"current_page": 3,
	"last_page": 3,
	"per_page": 5,
	"total": 12,
    "data":[
        {
			"id": 1,
			"cover": "",
			"name": "女医明妃传",
			"desc": "女医明妃传女医明妃传女医明妃传女医明妃传女医明妃传",
			"cate_name": "古装"
		},
		{
			"id": 1,
			"cover": "",
			"name": "女医明妃传",
			"desc": "女医明妃传女医明妃传女医明妃传女医明妃传女医明妃传",
			"cate_name": "古装"
		}
    ]
}